<svg id="logo" viewBox="0 0 55 46" fill="none" xmlns="http://www.w3.org/2000/svg">
<path d="M51.5184 0C54.1815 0 55.798 2.91252 54.3731 5.14346C46.1015 18.0942 37.8299 31.045 29.5583 43.9958C28.2209 46.0899 25.133 46.0689 23.8245 43.9569L18.9104 36.025C21.8996 31.3343 27.7671 22.0153 27.8778 21.9578C27.9645 21.9144 26.6192 19.3519 25.4176 17.1035C24.6138 15.5994 25.722 13.7819 27.4385 13.7938C30.1142 13.8124 33.2255 13.8206 33.3025 13.7596C33.4381 13.652 41.8823 0 41.8823 0H51.5184Z" fill="white"/>
<path d="M0.48448 5.1168C-0.855613 2.91065 0.742453 0.142412 3.33969 0.133331C16.561 0.0871061 20.0328 0.0454901 36.2456 5.44224e-05C34.1458 3.53542 30.9971 9.1687 30.2561 10.4978C30.1568 10.6758 29.9685 10.7853 29.7633 10.7853H21.6796C20.0069 10.7853 18.9176 12.5292 19.6627 14.0142L23.3183 21.2996C23.4032 21.4687 23.3961 21.6687 23.2996 21.8315L17.0587 32.3559C15.2129 29.1915 5.64043 13.6049 0.48448 5.1168Z" fill="white"/>
</svg>
